Assignment_6
…
2.5 Plot the total rainfall per month in a bar chart, as shown below. Hint: separating date into three columns might be helpful. 

data1<-data1 %>%
  dplyr::mutate(year = lubridate::year(date), 
                month = lubridate::month(date), 
                day = lubridate::day(date))
data1

## # A tibble: 8,736 x 21
##    date       station hour   AMB_TEMP    CO    NO   NO2   NOx    O3  PM10 PM2.5 RAINFALL    RH   SO2
##    <date>     <chr>   <time>    <dbl> <dbl> <dbl> <dbl> <dbl> <dbl> <dbl> <dbl>    <dbl> <dbl> <dbl>
##  1 2015-01-01 Cailiao 00:00        16  0.74   1      15    16    35   171    76        0    57   9.2
##  2 2015-01-01 Cailiao 01:00        16  0.7    0.8    13    14    36   174    78        0    57   7.7
##  3 2015-01-01 Cailiao 02:00        15  0.66   1.1    13    14    35   160    69        0    58   6.6
##  4 2015-01-01 Cailiao 03:00        15  0.61   1.7    12    13    34   142    60        0    59   5.4
##  5 2015-01-01 Cailiao 04:00        15  0.51   2      11    13    34   123    52        0    59   4.8
##  6 2015-01-01 Cailiao 05:00        14  0.51   1.7    13    15    32   110    44        0    57   5  
##  7 2015-01-01 Cailiao 06:00        14  0.51   1.9    13    15    30   104    40        0    57   5.3
##  8 2015-01-01 Cailiao 07:00        14  0.6    2.4    16    18    26   104    41        0    56   5.9
##  9 2015-01-01 Cailiao 08:00        14  0.62   3.4    16    19    26   109    44        0    53   6.2
## 10 2015-01-01 Cailiao 09:00        15  0.58   3.7    14    18    29   105    44        0    49   5.6
## # ... with 8,726 more rows, and 7 more variables: WD_HR <dbl>, WIND_DIREC <dbl>, WIND_SPEED <dbl>,
## #   WS_HR <dbl>, year <dbl>, month <dbl>, day <int>
…
