Assignment_4
…
1
79.6
4.02
2.02
9.66

1
79.6
4.02
3.82
8.58

Theoph %>% select(starts_with("t"))

## # A tibble: 132 x 1
##     Time
##    <dbl>
##  1  0   
##  2  0.25
##  3  0.57
##  4  1.12
##  5  2.02
##  6  3.82
##  7  5.1 
##  8  7.03
##  9  9.05
## 10 12.1 
## # ... with 122 more rows
…
